Multi-lineage inference from vector integration sites in gene therapy essay
…
data %>% dplyr::pull(lineage) %>% unique()

## [1] "B"       "Myeloid" "T"

It contains observations over three timepoints.

data %>% dplyr::pull(timepoints) %>% unique()

## [1] "early" "late"  "mid"

data %>% 
  lineaGT:::long_to_wide_cov()

## # A tibble: 570 x 10
##    IS    cov.e~1 cov.l~2 cov.m~3 cov.e~4 cov.l~5 cov.m~6 cov.e~7 cov.l~8 cov.m~9
##    <chr>   <int>   <int>   <int>   <int>   <int>   <int>   <int>   <int>   <int>
##  1 0610~     132      68      78       0      66       0      92      14      34
##  2 1700~     106       0      48      20       0       0     280       0     134
##  3 1700~      58      78      64      52     110       8       8      62      40
##  4 1700~     258     548     258     108     662      36      48     194     212
##  5 1700~     170       0     122      40       0       2     198       0     178
##  6 1700~     114       0      66       8       0       0     268       0     174
##  7 1700~      50      72      36      30      52      14      36      20      40
##  8 1700~       8     238      28     190     970     122       0     284      22
##  9 1700~     250     564     338      80     652      44      66     174     274
## 10 1810~      42      56      22      24     132      20       6       4       6
## # ... with 560 more rows, and abbreviated variable names 1: cov.early.B,
## #   2: cov.late.B, 3: cov.mid.B, 4: cov.early.Myeloid, 5: cov.late.Myeloid,
## #   6: cov.mid.Myeloid, 7: cov.early.T, 8: cov.late.T, 9: cov.mid.T
…
